Démarche globale de l’analyse
…
Début du tutoriel

- Accéder au dossier “Tutoriels” et ouvrir le fichier : 1_data_manipulation.rmd (après avoir télécharger le projet sur GitHub : https://github.com/zaher-stat/Atelier-R-Semaine-DATA-SHS)

- Importer le jeu de données : Intensité_symptômes_dépressif.csv (qui se trouve dans le fichier “Tutoriels/Data”) Il s’agit de données sur l’intensité des symptômes dépressifs fournies par Eurostat

Data import

library(tidyverse)
library(readr)

intensite_depressif <- read_csv2("../Tutoriels/Data/Intensité_symptômes_dépressif.csv")
intensite_depressif

## # A tibble: 500 x 6
##    Pays   Classe_âge     Sexe  Quintile_revenu Classe_intensité  Pourcentage
##    <chr>  <chr>          <chr> <chr>           <chr>                   <dbl>
##  1 France De 15 à 24 ans F     1er_quintile    Aucun ou minimum         50.2
##  2 France De 15 à 24 ans F     1er_quintile    Faible                   35  
##  3 France De 15 à 24 ans F     1er_quintile    Grave                     0.5
##  4 France De 15 à 24 ans F     1er_quintile    Modéré                   11.8
##  5 France De 15 à 24 ans F     1er_quintile    Moyennement grave         2.5
##  6 France De 15 à 24 ans H     1er_quintile    Aucun ou minimum         67.7
##  7 France De 15 à 24 ans H     1er_quintile    Faible                   24.4
##  8 France De 15 à 24 ans H     1er_quintile    Grave                     0.3
##  9 France De 15 à 24 ans H     1er_quintile    Modéré                    6.1
## 10 France De 15 à 24 ans H     1er_quintile    Moyennement grave         1.5
## # ... with 490 more rows
…
- select() : pour sélectionner des colonnes d’un tableau, et rename() : pour renommer des colonnes

- arrange() : pour réordonner les lignes d’un tableu selon une ou plusieurs colonnes

- mutate() : pour créer de nouvelles colonnes dans le tableau de données

Manipulation des données avec dplyr

- Sélectionner les données de la France :

intensite_depressif_Fr <- intensite_depressif %>% filter(Pays == "France")
intensite_depressif_Fr

## # A tibble: 250 x 6
##    Pays   Classe_âge     Sexe  Quintile_revenu Classe_intensité  Pourcentage
##    <chr>  <chr>          <chr> <chr>           <chr>                   <dbl>
##  1 France De 15 à 24 ans F     1er_quintile    Aucun ou minimum         50.2
##  2 France De 15 à 24 ans F     1er_quintile    Faible                   35  
##  3 France De 15 à 24 ans F     1er_quintile    Grave                     0.5
##  4 France De 15 à 24 ans F     1er_quintile    Modéré                   11.8
##  5 France De 15 à 24 ans F     1er_quintile    Moyennement grave         2.5
##  6 France De 15 à 24 ans H     1er_quintile    Aucun ou minimum         67.7
##  7 France De 15 à 24 ans H     1er_quintile    Faible                   24.4
##  8 France De 15 à 24 ans H     1er_quintile    Grave                     0.3
##  9 France De 15 à 24 ans H     1er_quintile    Modéré                    6.1
## 10 France De 15 à 24 ans H     1er_quintile    Moyennement grave         1.5
## # ... with 240 more rows

Manipulation des données avec dplyr

- Sélectionner les données de la France pour la classe d’âge de 25 à 34 ans :

intensite_depressif_Fr_CA34 <- intensite_depressif %>% filter(Pays == "France" & Classe_âge == "De 25 à 34 ans")
intensite_depressif_Fr_CA34

## # A tibble: 50 x 6
##    Pays   Classe_âge     Sexe  Quintile_revenu Classe_intensité  Pourcentage
##    <chr>  <chr>          <chr> <chr>           <chr>                   <dbl>
##  1 France De 25 à 34 ans F     1er_quintile    Aucun ou minimum         57.2
##  2 France De 25 à 34 ans F     1er_quintile    Faible                   22  
##  3 France De 25 à 34 ans F     1er_quintile    Grave                     1  
##  4 France De 25 à 34 ans F     1er_quintile    Modéré                   17.1
##  5 France De 25 à 34 ans F     1er_quintile    Moyennement grave         2.7
##  6 France De 25 à 34 ans H     1er_quintile    Aucun ou minimum         59.3
##  7 France De 25 à 34 ans H     1er_quintile    Faible                   31.1
##  8 France De 25 à 34 ans H     1er_quintile    Grave                     0  
##  9 France De 25 à 34 ans H     1er_quintile    Modéré                    8  
## 10 France De 25 à 34 ans H     1er_quintile    Moyennement grave         1.6
## # ... with 40 more rows

Enchaîner les opérations avec %>%

- Extraire les données de la France pour la classe d’âge de 25 à 34 ans avec filter, sélectionner les colonnes “Classe_âge” et “Pourcentage” avec select puis trier selon la variable “Pourcentage” avec arrange :

intensite_depressif %>% 
  filter(Pays == "France" & Classe_âge == "De 25 à 34 ans") %>% 
  select(Classe_âge, Pourcentage) %>% 
  arrange(Pourcentage)

## # A tibble: 50 x 2
##    Classe_âge     Pourcentage
##    <chr>                <dbl>
##  1 De 25 à 34 ans         0  
##  2 De 25 à 34 ans         0  
##  3 De 25 à 34 ans         0  
##  4 De 25 à 34 ans         0  
##  5 De 25 à 34 ans         0  
##  6 De 25 à 34 ans         0  
##  7 De 25 à 34 ans         0.3
##  8 De 25 à 34 ans         0.4
##  9 De 25 à 34 ans         0.6
## 10 De 25 à 34 ans         0.7
## # ... with 40 more rows
…
